{
	"MRData": {
		"xmlns": "http:\/\/ergast.com\/mrd\/1.4",
		"series": "f1",
		"url": "http://ergast.com/api/f1/current/constructors.json",
		"limit": "30",
		"offset": "0",
		"total": "10",
		"ConstructorTable": {
			"season": "2017",
			"Constructors": [
				{
					"constructorId": "ferrari",
					"url": "http:\/\/en.wikipedia.org\/wiki\/Scuderia_Ferrari",
					"name": "Ferrari",
					"nationality": "Italian"
				},
				{
					"constructorId": "force_india",
					"url": "http:\/\/en.wikipedia.org\/wiki\/Force_India",
					"name": "Force India",
					"nationality": "Indian"
				},
				{
					"constructorId": "haas",
					"url": "http:\/\/en.wikipedia.org\/wiki\/Haas_F1_Team",
					"name": "Haas F1 Team",
					"nationality": "American"
				},
				{
					"constructorId": "mclaren",
					"url": "http:\/\/en.wikipedia.org\/wiki\/McLaren",
					"name": "McLaren",
					"nationality": "British"
				},
				{
					"constructorId": "mercedes",
					"url": "http:\/\/en.wikipedia.org\/wiki\/Mercedes-Benz_in_Formula_One",
					"name": "Mercedes",
					"nationality": "German"
				},
				{
					"constructorId": "red_bull",
					"url": "http:\/\/en.wikipedia.org\/wiki\/Red_Bull_Racing",
					"name": "Red Bull",
					"nationality": "Austrian"
				},
				{
					"constructorId": "renault",
					"url": "http:\/\/en.wikipedia.org\/wiki\/Renault_F1",
					"name": "Renault",
					"nationality": "French"
				},
				{
					"constructorId": "sauber",
					"url": "http:\/\/en.wikipedia.org\/wiki\/Sauber",
					"name": "Sauber",
					"nationality": "Swiss"
				},
				{
					"constructorId": "toro_rosso",
					"url": "http:\/\/en.wikipedia.org\/wiki\/Scuderia_Toro_Rosso",
					"name": "Toro Rosso",
					"nationality": "Italian"
				},
				{
					"constructorId": "williams",
					"url": "http:\/\/en.wikipedia.org\/wiki\/Williams_Grand_Prix_Engineering",
					"name": "Williams",
					"nationality": "British"
				}
			]
		}
	}
}